<svg xmlns="http://www.w3.org/2000/svg" xmlns:xlink="http://www.w3.org/1999/xlink" width="250" height="350" viewBox="0 0 250 250">
  <defs>
    <clipPath id="clip-Web_1920_3">
      <rect width="250" height="250"/>
    </clipPath>
  </defs>
  <g id="Web_1920_3" data-name="Web 1920 – 3" clip-path="url(#clip-Web_1920_3)">
    <rect width="250" height="250" fill="rgba(255,11,11,0)"/>
    <rect id="card" width="250" height="153" rx="41" transform="translate(0 49)"/>
    <g id="Person">
      <circle id="Ellipse_2" data-name="Ellipse 2" cx="23" cy="23" r="23" transform="translate(43 70)" fill="#fff"/>
      <path id="Path_3" data-name="Path 3" d="M-1.184-1.444C2.938-1.444,26.884-3.27,34,1c8.544,5.126,10.454,32.638,10.454,40.922,0,14.766-18.864,6.848-28.253,6.848s-28.279,9.716-28.279-5.05S-10.572-1.444-1.184-1.444Z" transform="translate(50 122.545)" fill="#fff"/>
    </g>
    <g id="Details">
      <rect id="Rectangle_2" data-name="Rectangle 2" width="93" height="38" rx="8" transform="translate(125 70)" fill="#fff"/>
      <rect id="Rectangle_3" data-name="Rectangle 3" width="93" height="6" transform="translate(125 122)" fill="#fff"/>
      <rect id="Rectangle_4" data-name="Rectangle 4" width="93" height="6" transform="translate(125 142)" fill="#fff"/>
    </g>
  </g>
</svg>
